<?xml version="1.0" encoding="utf-8"?>
<!-- Generator: Adobe Illustrator 18.1.0, SVG Export Plug-In . SVG Version: 6.00 Build 0)  -->
<svg version="1.1" id="Isolation_Mode" xmlns="http://www.w3.org/2000/svg" xmlns:xlink="http://www.w3.org/1999/xlink" x="0px"
	 y="0px" viewBox="0 0 87.8 142.2" enable-background="new 0 0 87.8 142.2" xml:space="preserve">
<g>
	<path fill="#FFFFFF" d="M81.4,18.1c-1.1-6.2-3-12.3-5.6-18.1c-0.1,0-0.2,0-0.3,0c1.8,4.6,3,9.4,3.6,14.4c0.4,3.8,0.4,7.7,0.2,11.5
		c-0.2,3.8-0.7,7.6-1.5,11.4c-1.5,7.5-4.6,14.8-9.1,21.2c-0.3,0.5-0.7,1-1.1,1.4c-0.8,1.6-1.7,3.1-2.7,4.7c-2.5,4.1-5.3,8-8.3,11.7
		c-3,3.7-6.2,7.3-9.3,10.9c-0.1,0.1-0.2,0.2-0.2,0.3c5.6-4.2,12.8-8.7,17.6-14c6.7-7.4,12.1-16.1,15-25.7
		C82.6,38.2,83.1,28,81.4,18.1z"/>
	<path fill="#FFFFFF" d="M73.2,11c-4,20-18.2,31.1-34.6,43.1C30.7,60,22.3,65.6,15.5,73c-3.4,3.7-6.2,8-7.9,12.8
		c-1.4,4.1-2,8.4-1.7,12.7c-0.2,0.8-0.3,1.7-0.5,2.6c-0.8,5.9-0.3,11.8,1,17.5c1.8,8,5,15.6,8.9,22.7c0.1,0.1,0.1,0.2,0.2,0.3
		c-1.2-0.5-2.2-1.5-2.7-2.8c-0.1-0.2-0.1-0.4-0.2-0.6C6.7,125.8,0,114,0,100.4c0-56.6,72.2-48.5,72.2-97c0-0.5,0.1-1,0.3-1.4
		c0-0.1,0.1-0.2,0.2-0.3c0,0.2,0,0.3,0,0.5C73.1,5.3,73.3,8.2,73.2,11z"/>
	<path fill="#FFFFFF" d="M28.2,119.5c2.5-4.7,5.6-9,9-13c3.4-4,7.2-7.7,11.1-11.2l11.7-10.4c3.9-3.5,7.6-7.1,10.9-11.1
		c3.3-4,6.9-10.8,8.1-15.9c0.7-3,1.2-4.8,1.6-6.4c-1.4,3.8-3.2,7.4-5.2,10.8c-2.7,4.4-5.9,8.4-9.4,12.1c-6.4,6.7-14,12.1-22,16.6
		c-2,2.3-4,4.5-5.9,6.8c-6.1,7.2-11.5,15.1-14.5,24.1c-2.2,6.4-3,13.2-3,20c0.3-0.1,0.7-0.2,0.9-0.4c0.3-2.4,0.7-4.8,1.2-7.2
		C23.8,129.2,25.7,124.2,28.2,119.5z"/>
	<path fill="#FFFFFF" d="M69.2,42.5c-3,5.3-6.5,10.3-10.3,15c-7.6,9.4-16.1,18-24,27.1c-1.1,1.3-2.2,2.6-3.3,3.9
		c0.5-0.5,1-1,1.5-1.4c5.6-5.3,11.8-9.8,17.6-14.5c5.9-4.7,11.4-9.8,15.7-15.8c4.4-6,7.4-12.8,9.1-20.1c0.9-3.6,1.4-7.3,1.8-11
		c0.3-3.7,0.5-7.5,0.3-11.2c-0.2-3.7-0.8-7.5-1.7-11.1c-0.3-1.1-0.6-2.2-1-3.3c-0.1,0-0.3,0.1-0.4,0.1c0.7,2.3,1.3,4.7,1.6,7.1
		c1,6,0.8,12.2-0.4,18.2C74.5,31.5,72.1,37.2,69.2,42.5z"/>
	<path fill="#FFFFFF" d="M39.8,55.8c-9.5,6.9-16.9,11.9-23.2,18.3c-3.4,3.5-6.1,9.2-8,13.7c-0.9,2.1-1.2,4-1.5,5.9
		c1.1-3.2,2.6-6.3,4.5-9.1c3.2-4.9,7.4-9.2,11.8-12.9c4.5-3.7,9.2-7.1,14.1-10.2c4.8-3.2,9.7-6.3,14.4-9.6c0.6-0.4,1.1-0.8,1.7-1.2
		c5.4-4.9,10.3-10.2,13.9-16.5c3.4-5.9,5.2-12.6,5.7-19.5C69.4,32.8,51.5,47.1,39.8,55.8z"/>
	<path fill="#FFFFFF" d="M76.8,79.3c-21.7,29.3-48.2,31-54.2,60.9c0,0.2-0.1,0.3-0.1,0.4c-0.1,0.2-0.2,0.3-0.3,0.5
		c0-0.2,0.1-0.5,0.1-0.7c1.3-7.1,3.7-13.9,7.3-20.1c5.1-9,12.4-16.5,20.1-23.5c7.6-7,15.9-13.6,22.5-22c3.2-4.2,5.9-8.9,7.5-13.9
		c1.1-3.7,1.7-7.6,1.7-11.5c0.1-0.4,0.2-0.7,0.3-1.1c1.5-4.9,2.4-10,2.6-15.2c0.2-5.1-0.2-10.3-1.3-15.3c-1.2-6.1-3.3-12-6.1-17.5
		c0-0.1,0-0.1-0.1-0.1c0.3,0.1,0.5,0.3,0.7,0.6c0.1,0.1,0.2,0.3,0.3,0.4C93.7,29.9,88.5,63.5,76.8,79.3z"/>
	<path fill="#FFFFFF" d="M19.7,135.7c0.1-4.8,0.8-9.6,2.3-14.2c1.4-4.6,3.5-9,6-13.2c2.5-4.1,5.4-8,8.5-11.7
		c6.2-7.4,12.9-14.1,19.1-21.3c3-3.5,5.8-7.1,8.4-10.8c-3.5,3.8-7.3,7.3-11.3,10.5c-5.9,4.8-12.1,9.2-17.5,14.3
		c-2.7,2.5-5.3,5.2-7.5,8.2c-2.2,3-4.1,6.2-5.5,9.5c-2.9,6.8-4,14.3-4.1,21.8c-0.1,4.5,0.3,9,0.9,13.4c-0.2,0-0.5,0-0.7-0.1
		c-0.1-0.7-0.3-1.3-0.4-2c-0.7-3.7-1.1-7.5-1.3-11.4c-0.3-7.6,0.5-15.4,3.4-22.7c0.6-1.7,1.4-3.3,2.2-4.8c0.4-0.9,0.9-1.8,1.3-2.7
		c2.9-5.3,6.5-10.3,10.3-14.9c7.6-9.4,16.1-17.9,23.6-27.3c3.8-4.7,7.2-9.5,10.2-14.7c3-5.2,5.3-10.7,6.6-16.5
		c1.4-5.8,1.7-11.8,1-17.7c-0.3-2.3-0.7-4.6-1.3-6.9c-0.2,0.1-0.4,0.2-0.5,0.4c0,0.1,0,0.2,0.1,0.3c0.7,3.8,1.2,7.6,1.2,11.5
		c0,3.9-0.3,7.8-1.2,11.6c-0.9,3.8-2.2,7.5-4.1,11c-3.6,7-9,12.8-14.6,18c-5.7,5.2-11.7,9.9-17.4,14.9c-5.7,5-11,10.3-15.1,16.6
		c-2.1,3.1-3.8,6.4-5.1,9.9c-1.3,3.5-2.2,7.1-2.8,10.8c-1.1,7.4-0.7,15,0.5,22.5c0.7,4.7,1.8,9.4,3.1,14.1c-0.2,0-0.5-0.1-0.7-0.1
		c-1.5-4.5-2.8-9.1-3.9-13.7c-1.6-7.5-2.3-15.3-1.4-23.1c0.8-7.8,3.6-15.3,7.8-21.9c4.2-6.6,9.8-12.2,15.5-17.3
		c2.8-2.4,5.6-4.7,8.4-7.1c-1.8,1.3-3.7,2.6-5.5,3.8C33.7,66,29,69.4,24.7,73.1c-4.3,3.7-8.3,7.8-11.4,12.6c-3.1,4.7-5.2,10-6,15.6
		c-0.9,5.6-0.5,11.3,0.6,16.9c1.1,5.6,2.9,11.1,5.1,16.4c1,2.4,2.1,4.8,3.2,7.2c-0.2,0-0.4-0.1-0.6-0.1c1.4,0.6,3,0.7,4.3,0.4
		C19.7,139.9,19.7,137.8,19.7,135.7z"/>
</g>
</svg>
