<?xml version="1.0" encoding="utf-8"?>
<!-- Generator: Adobe Illustrator 18.1.0, SVG Export Plug-In . SVG Version: 6.00 Build 0)  -->
<svg version="1.1" id="Isolation_Mode" xmlns="http://www.w3.org/2000/svg" xmlns:xlink="http://www.w3.org/1999/xlink" x="0px"
	 y="0px" viewBox="0 0 122.2 128.5" enable-background="new 0 0 122.2 128.5" xml:space="preserve">
<g>
	<path fill="#FFFFFF" d="M71.3,112c-0.4,0-0.8,0-1.1-0.1c0.3-0.9,0.5-1.7,0.8-2.5c1.3-3.1,2.1-5.9,2.4-8.4c2.8-0.9,5.3-2.9,7.2-5.9
		c0.4,0.6,0.9,1.1,1.5,1.6c3.1,3,7.2,4.8,11,4.8c2.9,0,5.6-1.2,7.4-3.3c0.8,0.2,1.6,0.3,2.4,0.3c1.2,0,2.5-0.2,3.8-0.7
		c-2.9,7.7-10.6,12.9-19.6,13l-0.1,0c-1.7,0-3-0.4-4.4-0.9c-1.5-0.5-3-1-5-1c-1.9,0-2.9,1-3.9,1.8C73,111.4,72.3,112,71.3,112
		L71.3,112z"/>
	<path fill="#FFFFFF" d="M49.8,112c-1,0-1.8-0.5-2.7-1.1c-1.1-0.7-2.3-1.5-4.1-1.5c-1.3,0-2.8,0.3-4.4,0.6c-1.7,0.3-3.4,0.6-4.8,0.6
		c-0.2,0-0.3,0-0.5,0c-9.7-0.5-14.8-8.6-16.6-12.4c0.9,0.2,1.8,0.3,2.6,0.3c0.8,0,1.6-0.1,2.4-0.3c1.8,2.2,4.4,3.3,7.4,3.3
		c3.5,0,7.2-1.5,10.2-4.1c0,0,0.1,0.1,0.1,0.1c1.8,1.9,4.3,3,7.5,3.3c0.4,2.5,1.3,5.4,2.8,8.7c0.3,0.7,0.6,1.4,0.8,2.1
		C50,112,49.9,112,49.8,112L49.8,112z"/>
	<path fill="#FFFFFF" d="M60.6,128.5c-2.2,0-4.4-0.9-4.4-2.9c-0.1-9.3-1.3-12-2.4-14.4l-0.3-0.7c-0.1-0.3-0.3-0.6-0.4-0.9
		c-1-2.8-1.8-5.3-2.3-7.5c0,0,0,0,0.1,0.1c1,1.3,2.6,3.2,5,3.2c1.2,0,2.2-0.6,3.1-1.1c0.4-0.2,1-0.6,1.2-0.6c0.2,0,0.7,0.3,0.9,0.5
		c0.8,0.5,2,1.2,3.4,1.2c2.8,0,3.7-1.8,4.2-2.9c0.5-0.9,0.6-1,1-1c0,0,0.1,0,0.1,0c-0.4,2-1.1,4.1-2,6.5c-0.4,1-0.8,2.1-1.1,3.3
		c-1.8,6.7-1.2,14.2-1.2,14.3C65.4,127.5,62.9,128.5,60.6,128.5z"/>
	<path fill="#FFFFFF" d="M55.9,101.9c-0.7,0-1.4-0.9-2.2-1.8c-1-1.2-2.1-2.5-3.6-2.5c0,0-1.2,0-1.5,0c-0.4,0-0.9,0-1.4,0
		c-2.4-0.2-4.2-1-5.5-2.6c1.3-1.7,2.1-3.6,2.4-5.4c3.1-2.4,4.1-5.6,4.9-8c0.1-0.2,0.1-0.5,0.3-0.8c1,0.5,2.6,1.1,4.7,1.1
		c3.1,0,5.8-1.4,7.1-3.7c1.3,2.3,4,3.7,7.1,3.7c2.1,0,3.8-0.7,4.7-1.1c0.1,0.3,0.2,0.5,0.2,0.7c0.8,2.4,1.9,5.7,4.9,8.1
		c0.1,0.7,0.3,1.4,0.6,2.2c-1.5,2.9-3.4,4.9-5.7,5.8c-0.7,0.3-1.5,0.5-2.3,0.6c-0.3,0-0.6,0-0.8,0c-2.4,0-3.1,1.3-3.7,2.3
		c-0.5,0.8-0.8,1.4-1.9,1.4c-0.2,0-0.6-0.2-1-0.5c-0.7-0.5-1.7-1.1-3-1.1c-1.1,0-2.2,0.6-3,1.1C56.7,101.6,56.2,101.9,55.9,101.9z"
		/>
	<path fill="#FFFFFF" d="M17.3,65.3c-0.8-0.4-1.7-0.8-2.5-1c-3-0.9-3.9-3.3-4.7-5.8c-0.7-1.9-1.4-3.9-3.2-5
		c-0.7-0.4-1.4-0.7-1.9-0.9c-1-0.4-1.6-0.8-2.4-1.7c-0.9-1-1.6-2-2.2-3c-0.9-3.3-0.2-4.8,0.8-6.5c0.5,0.7,1.2,1.4,2.1,2.2
		c1.7,1.5,3.3,2.2,4.8,2.2c0.6,0,1.1-0.1,1.7-0.3c2-0.9,1.4-3.4,1.2-4.3c-0.1-0.4-0.2-0.8-0.3-1.2l0-0.2c0-0.4,0-0.9,0-1.3
		c0-0.7,0.3-1.4,0.8-2.1c0.4-0.5,0.9-0.9,1.7-1.1c0.8-0.2,1.5-0.6,2.1-1.1c1-0.8,1.6-2.1,2-3.8c0.2-0.8,0.2-1.5,0.1-2.4
		c0.9,0.8,2,1.3,3.2,1.6c0.3,0.1,0.6,0.1,1,0.1c0.8,0,1.5-0.2,2.3-0.4c0.2-0.1,0.5-0.1,0.7-0.1c0.3,0,0.6,0.1,0.9,0.2
		c0,0,0.2,0.1,0.4,0.2c0.2,0.5,0.4,0.9,0.7,1.3c0.4,0.7,0.8,1.3,0.9,2c0.3,1.2-0.6,2.9-1.8,3.6c-0.7,0.4-1.6,0.7-2.5,0.9
		c-1.2,0.3-2.3,0.5-3.3,0.7c-2,0.3-3.8,1.4-4.6,3c-1.1,2-0.8,4.3-0.5,5.6c0.1,0.3,0.2,0.7,0.2,1c0.1,0.6,0.3,1.3,0.4,1.9
		c0.1,0.7,0,1.4-0.1,2.1c-0.1,0.7-0.4,1.3-0.8,1.6c-0.3,0.3-0.6,0.4-0.9,0.4c-0.1-0.1-0.2-0.2-0.2-0.3c-0.1-0.1-0.2-0.3-0.3-0.4
		c-0.4-0.4-0.6-0.8-0.8-1.2c-0.3-0.7-0.5-1.6-0.2-1.9c0,0,0.1-0.1,0.3-0.1c0.5,0,0.8-0.4,0.8-0.9c0-0.4-0.4-0.8-0.9-0.8
		c-0.9,0-1.4,0.4-1.7,0.8c-0.9,1.1-0.4,2.9-0.1,3.9c0.2,0.5,0.5,0.9,0.8,1.3l0.1,0.1c0.1,0.1,0.2,0.3,0.4,0.4
		c0.3,0.3,0.5,0.6,0.8,0.9c0.8,0.8,2,1.2,3.1,1.6c1.6,0.5,1.6,1.7,1.5,3.6c0,0.6-0.1,1.2,0,1.8c0,0.3,0.1,0.6,0.1,0.9
		c0,0.2,0.1,0.5,0.1,0.7C17.3,64.5,17.3,64.9,17.3,65.3z"/>
	<path fill="#FFFFFF" d="M58.3,18.9c-0.3-0.3-0.5-0.7-0.7-1c-0.5-0.9-0.8-2-1.1-3.1l-0.1-0.4c-0.1-0.3-0.2-0.7-0.3-1
		c-0.1-0.2-0.1-0.5-0.2-0.7c-0.1-0.3-0.1-0.7-0.1-1.1c0-0.2,0-0.5,0-0.7c0.8-0.3,1.6-0.8,2.2-1.5c0.1-0.1,0.2-0.3,0.4-0.4
		c0,0,0,0,0,0.1c0,0.2-0.6,6,0.3,8.5c0,0.1,0,0.3-0.2,0.6C58.5,18.3,58.4,18.6,58.3,18.9z"/>
	<path fill="#FFFFFF" d="M1.5,58.5c0.1-0.7,0.1-1.5,0.1-2.3c0-0.5,0-1.1,0.1-1.7c0-0.5,0.1-0.9,0.1-1.4c0.7,0.6,1.4,1.2,2.1,1.6
		c0.3,0.2,0.6,0.4,0.9,0.5l0.1,0.1c0.8,0.5,1.6,0.9,2.1,1.6c0.2,0.3,0.4,0.8,0.6,1.4c-0.9-0.3-2-0.5-3-0.5c-0.3,0-0.5,0-0.8,0
		C2.9,57.9,2.2,58.2,1.5,58.5z"/>
	<path fill="#FFFFFF" d="M52.9,78.5c-1.7,0-2.8-0.6-3.7-1c-0.7-0.3-1.2-0.6-1.8-0.6c-0.2,0-0.4,0-0.6,0.1c-0.3,0-0.5,0-0.7,0
		c-0.4,0-0.9,0-1.3,0.1l-0.5,0c-0.3,0-0.5,0-0.8,0.1c-0.5,0-0.9,0.1-1.3,0.1c-0.1,0-0.2,0-0.3,0c-0.3,0-0.6-0.1-1-0.3
		c-0.1-0.1-0.1-0.1-0.2-0.2c-0.9-0.5-1.5-0.8-2.1-1.3c-0.2-0.1-0.3-0.2-0.5-0.4c-0.4-0.3-0.7-0.6-1-1c-0.3-0.4-0.6-0.7-0.9-1.1
		c-0.5-0.7-0.8-1.5-1.2-2.6c-0.3-1-0.6-2.1-0.6-3.2c0-1,0.5-1.8,1.2-2.3c0.3-0.2,0.5-0.2,0.9-0.2c0.6,0,1.3,0.3,2.2,0.9l0.4,0.3
		c0.6,0.5,1.3,1,2.2,1.3c0.8,0.2,1.6,0.4,2.4,0.4c0.2,0,0.3,0,0.4,0l0.2,0l0.2,0c0.2,0,0.3,0,0.5,0c0.4-0.1,0.7-0.4,0.7-0.8
		c0-0.3-0.2-0.6-0.5-0.7c0,0-0.1-0.1-0.2-0.1c-0.5-0.1-0.9-0.1-1.3-0.1c-0.2,0-0.4,0-0.6,0c-0.7-0.1-1.3-0.3-2-0.7
		c-0.3-0.2-0.6-0.4-0.9-0.7c-0.7-0.5-1.4-1-2.4-1.4c-0.5-0.2-0.9-0.2-1.4-0.2c-0.8,0-1.6,0.2-2.2,0.7c-0.2-0.3-0.4-0.6-0.7-0.9
		c-0.4-0.4-0.9-0.7-1.3-1l-0.1-0.1c-0.1-0.1-0.3-0.2-0.4-0.3c-0.6-0.4-1.2-0.8-2.1-0.9l-0.3,0c-0.4,0-0.9-0.1-1.3-0.1
		c-0.3,0-0.5,0-0.7,0c-0.9,0.1-1.5,0.6-2,1c-1,0.8-1.7,2.3-1.8,3.9c0,0.2,0.1,0.4,0.2,0.6c0.2,0.1,0.4,0.2,0.6,0.2
		c0.3,0,0.5-0.1,0.6-0.3c0.2-0.3,0.4-0.7,0.6-1c0.3-0.5,0.6-1,0.9-1.4c0.3-0.3,0.6-0.6,1.1-0.8c0,0,0.2-0.1,0.5-0.1
		c0.2,0,0.4,0,0.6,0l0.6,0c0.4,0,0.8,0,1.3,0.1c0.5,0.1,1,0.5,1.5,0.8c0.5,0.3,0.8,0.7,1,1.1c0,0.1,0.1,0.2,0.1,0.3
		c-0.4,0.6-0.7,1.4-0.8,2.1c-0.3,2.1,0.5,4.8,1.9,7.3c0.2,0.3,0.3,0.5,0.6,0.8c0,0-0.1,0-0.1,0c-0.3,0.1-0.5,0.1-0.8,0.1
		c-0.5,0-1.5-0.2-3.8-1.8c-0.6-0.4-1.1-0.6-1.7-0.6c-0.3,0-0.6,0.1-0.9,0.1c-0.2,0.1-0.4,0.1-0.7,0.1c-0.3,0-0.6-0.1-0.9-0.2
		c-1.5-0.6-2.5-2-3.5-3.3c-0.7-0.9-1.3-1.7-2-2.3c-0.3-0.5-0.5-0.8-0.5-1.1c0.1-1.1-0.1-2-0.2-3.2c-0.1-0.5,0-1.1,0.1-1.7
		c0-0.4,0.1-0.8,0.1-1.1c0-1.1-0.1-2-0.5-2.8c-0.4-0.8-1.2-1.4-2.3-1.8c-0.2-0.1-0.9-0.3-1.1-0.4c0.3-0.2,0.5-0.4,0.7-0.6
		c1.1-1.2,1.2-2.8,1.2-4.3c0-1-0.2-2-0.4-2.9c-0.2-1-0.5-1.9-0.4-2.9c0.1-0.8,0.2-1.7,0.8-2.4c0.7-0.7,1.4-1.2,2.4-1.4
		c0.5-0.1,1.1-0.2,1.6-0.3l0.1,0c0.4-0.1,0.9-0.1,1.3-0.2c0.9-0.2,2-0.5,3-0.9c1.7-0.7,2.8-2,3.5-3.7c0.1-0.4,0.2-0.8,0.3-1.1
		c0.3-0.4,0.6-0.7,1.1-1.1c0.3-0.2,0.6-0.4,0.9-0.6c0.2-0.1,0.4-0.1,0.7-0.2c0.2-0.1,0.4-0.1,0.6-0.2c0.4-0.1,0.6-0.4,0.6-0.8
		c0-0.4-0.3-0.7-0.6-0.8c-0.2,0-0.4-0.1-0.6-0.1c-0.9,0-1.8,0.5-2.9,1.5c-0.2-0.5-0.4-1-0.7-1.5c-0.4-0.7-0.8-1.4-1-2.2
		c-0.2-0.9-0.2-1.9-0.2-2.7c0-0.4,0.1-0.9,0.2-1.2l0.1-0.4c0-0.2,0-0.5-0.2-0.7c-0.2-0.2-0.4-0.3-0.6-0.3c-0.3,0-0.5,0.1-0.7,0.4
		c-0.7,1.2-0.9,2.5-0.8,4c-0.4-0.1-0.8-0.1-1.1-0.1c-0.3,0-0.5,0-0.8,0l-0.2,0c-0.5,0.1-1,0.1-1.5,0.1c-0.4,0-0.7,0-1.1-0.1
		c-0.6-0.2-1.2-0.5-1.8-1.1c-1-1-1.5-2.7-1.2-4c0.1-0.3,0.2-0.6,0.4-0.9l0.2-0.3c0.1-0.3,0.2-0.5,0.3-0.8c0.1-0.2,0.1-0.4,0.2-0.6
		c0.2-0.5,0.6-0.8,1.1-1.2c0.3-0.3,0.6-0.5,0.9-0.9c0.2-0.2,0.3-0.6,0.1-0.9c-0.2-0.3-0.5-0.5-0.8-0.5h-0.1l-0.2,0
		c-2.2,0.5-3.1,2.6-3.7,4.2c-0.1,0.2-0.2,0.4-0.3,0.6c-0.6,1.4-0.6,2.9-0.1,4.4c-0.4,0.7-0.4,1.5-0.5,2.2c0,0.3,0,0.6,0.1,0.8
		c0,0.2,0,0.3,0,0.4c0,0.4-0.1,0.8-0.2,1.3c-0.4,1.6-1.1,2.7-2.3,3.2c-0.2,0.1-0.4,0.1-0.5,0.2c-0.5,0.2-1,0.4-1.5,0.8
		c-0.6,0.4-1.1,1.1-1.4,1.8c0,0.1-0.1,0.2-0.1,0.3c-0.4-0.6-0.8-1.2-1.3-1.7c-0.2-0.2-0.4-0.3-0.7-0.3c-0.3,0-0.6,0.1-0.8,0.4
		c-0.2,0.2-0.2,0.5-0.2,0.8c0.2,0.7,0.5,1.3,0.8,1.8c0,0,0.2,0.4,0.3,0.6c0.4,0.8,0.8,1.7,1,2.7c0,0.1,0.1,0.3,0.1,0.5
		C9,42,9.3,43.1,8.8,43.5c-0.1,0.1-0.3,0.1-0.5,0.1c-0.6,0-1.3-0.3-1.5-0.4c-0.8-0.4-1.6-1-2.2-1.6c-0.7-0.6-1.4-1.3-1.9-2
		c-0.1-0.2-0.2-0.4-0.4-0.6c-0.6-4.1,0.6-8.6,2.9-11.3c0.1,0,0.2,0,0.3,0c0.3,0,0.6,0,0.9-0.1c0.2,0,0.3,0,0.4,0c0.1,0,0.2,0,0.3,0
		c0.4,0,0.7,0.1,1.1,0.1c0.2,0.1,0.7,0.5,0.9,0.7c0.4,0.4,0.8,0.7,1.1,0.8c0.1,0.1,0.2,0.1,0.3,0.1c0.3,0,0.6-0.2,0.8-0.5
		c0.2-0.3,0.1-0.7-0.2-1L11,27.6c-0.7-0.7-1.3-1.3-1.9-1.6c-0.4-0.2-0.9-0.3-1.5-0.3c-0.2,0-0.5,0-0.7,0c0,0-0.2,0-0.2,0
		c1.7-5.3,6-9.8,13.1-13.7c0.1,0.1,0.2,0.2,0.3,0.3c0.4,0.4,0.8,0.8,1.1,1.3c0.3,0.5,0.6,1,0.8,1.4c0.1,0.3,0.2,0.5,0.3,0.8
		c0.1,0.3,0.2,0.6,0.3,0.8c0.1,0.3,0.5,0.6,0.8,0.6c0.4,0,0.7-0.2,0.8-0.6c0.3-1.1-0.1-2.1-0.5-2.8c-0.2-0.3-0.4-0.7-0.6-1
		c0.1,0,0.2,0,0.3,0c0.9-0.1,1.8-0.3,2.6-0.6c0.5-0.1,1-0.3,1.4-0.4c0.5-0.1,1-0.2,1.7-0.2c0.7,0,1.5,0.1,2.4,0.2
		c0.6,0.1,1.2,0.2,1.7,0.5c0.3,0.1,0.5,0.3,0.8,0.4c0.3,0.2,0.6,0.3,0.9,0.5c0.1,0.1,0.2,0.1,0.4,0.1c0.3,0,0.6-0.2,0.8-0.4
		c0.2-0.3,0.2-0.6,0-0.9c-0.6-1-1.8-1.5-2.9-1.8c-1-0.3-2.2-0.4-3.7-0.4l-0.5,0c-1.3,0-2.5,0.3-3.9,0.7c-0.8,0.2-1.4,0.4-2,0.4
		c-0.3,0-0.5,0-0.7,0c-0.4,0-0.6,0-0.8-0.1c-0.1-0.1-0.3-0.3-0.4-0.4c0-0.1,0.1-0.1,0.1-0.2c1.1-2,3.1-5.7,9.5-5.7
		c0.6,0,1.3,0,2,0.1H33l0.2-0.2c0,0,0-0.1,0.1-0.1c0,0.1,0.1,0.1,0.1,0.2c0.6,1.1,1.6,2.1,3.2,3c0.3,0.3,0.6,0.5,1,0.7
		c0.1,0,0.2,0.1,0.2,0.1c0.3,0.2,0.5,0.3,0.8,0.4c0.6,0.3,1.2,0.6,1.7,1.1c0.7,0.6,1.3,1.3,1.7,2c0.2,0.3,0.3,0.7,0.5,1.1
		c0.2,0.5,0.4,1.1,0.8,1.6c0.2,0.2,0.4,0.3,0.7,0.3c0.5,0,0.9-0.4,0.9-0.8c0-0.8-0.4-1.7-0.7-2.4L44,11.5c-0.4-0.9-1.2-1.7-1.8-2.4
		c0.7,0,1.5-0.1,2.1-0.3C44.7,8.7,45,8.4,45,8c0-0.4-0.3-0.7-0.7-0.8c-0.6-0.1-1.2-0.1-1.9-0.2l-0.6,0c-0.9,0-1.7-0.2-2.4-0.5
		c-1.1-0.4-2.6-1.2-3.6-2.3c-0.2-0.2-0.3-0.4-0.4-0.7c0.1,0,0.2,0,0.3,0c0.2,0,0.3,0,0.5,0c0.6,0,1.1-0.4,1.9-0.9
		c1.6-1,4-2.6,8.3-2.6c2.2,0,5.1,0.2,7.5,1.5c1.7,0.9,3.1,2.4,3.9,4.1c0,0,0,0.1-0.1,0.1c-0.2,0.3-0.4,0.7-0.6,1
		c-0.2,0.4-0.5,0.8-0.7,1.2C55.8,8.6,55,9,54.1,9c-0.6,0-1.2-0.1-1.8-0.4c-0.9-0.4-1.4-1.1-2-2c-0.4-0.6-0.9-1.3-1.5-1.8
		c-0.2-0.1-0.4-0.3-0.6-0.4c-0.5-0.3-1-0.7-1-1c0-0.4,0.4-1.2,0.7-1.7l0.2-0.3c0.2-0.3,0.1-0.6,0-0.9c-0.2-0.2-0.4-0.4-0.7-0.4
		c-0.2,0-0.3,0-0.5,0.1c-0.9,0.6-1.4,1.9-1.5,2.6c-0.4,1.5,0.9,2.4,1.5,2.9c1,0.7,1.6,1.5,2.2,2.5c0.7,1.1,1.6,1.9,2.7,2.4
		c0.8,0.4,1.7,0.6,2.5,0.6c-0.1,1.1,0,2,0.3,3c0.3,1.2,0.5,2.4,1,3.7c0.1,0.2,0.1,0.4,0.2,0.6c-1.2-0.3-2.4-0.4-3.2-0.5
		c-0.1,0-0.3,0-0.4,0c-0.4,0-0.6,0-0.8,0.1c-0.3,0-0.6,0.1-1.5,0.1c-0.3,0-0.5,0-0.8,0c-0.4,0-0.8,0-1.1,0c-0.7,0-1.5,0-2.4-0.3
		c-0.7-0.2-1.2-0.5-1.9-0.9c-0.6-0.3-1.1-0.6-1.8-0.9c-0.8-0.3-1.6-0.4-2.4-0.4c-0.4,0-0.7,0-1.1,0.1c-0.5,0.1-1.1,0.2-1.7,0.5
		c-0.3,0.1-0.5,0.2-0.7,0.4c-0.1,0.1-0.2,0.1-0.2,0.2c0,0,0,0,0,0c-0.3,0.1-0.4,0.4-0.4,0.7c0,0.4,0.2,0.7,0.6,0.8
		c0.1,0,0.2,0,0.2,0c0.4,0,0.6-0.2,0.8-0.3c0.4-0.2,0.9-0.4,1.7-0.4c0.2,0,0.4,0,0.6,0c0.2,0,0.5,0,0.7,0c0.6,0,1.2,0.4,1.7,0.7
		l0.1,0.1c0.2,0.1,0.5,0.3,0.7,0.4c0.9,0.5,1.8,1,2.9,1.3c0.5,0.1,1,0.2,1.5,0.2c-0.2,0.2-0.4,0.4-0.6,0.6c-0.1,0.1-0.5,0.5-0.5,0.5
		c-0.6,0.7-1.1,1.3-1.8,1.7c-0.7,0.4-1.6,0.6-2.5,0.8c-0.3,0.1-0.5,0.1-0.8,0.2C40.3,24.2,40,24.6,40,25c0.1,0.4,0.4,0.7,0.9,0.7
		c1.9,0,4-0.3,5.8-2c0.3-0.3,0.6-0.6,0.9-0.9c0.4-0.5,0.8-0.9,1.2-1.2c0.8-0.7,1.7-1.2,2.7-1.4c0.3-0.1,0.6-0.1,0.9-0.1
		c0.7,0,1.5,0.1,2.2,0.3c1.1,0.2,2,0.6,2.7,1.1c0.5,0.4,0.9,0.9,1.2,1.5c0.1,0.7,0.1,1.5,0.1,2.3c0,0.4-0.1,0.8-0.2,1.2
		c-0.1,0.5-0.2,1-0.2,1.5c0,0.8,0.1,1.6,0.1,2.4c-1-1.4-2.5-2.6-4.7-2.6c-0.1,0-0.3,0-0.4,0c-1.7,0.1-2.9,1.3-3.7,2.3
		c-0.1,0.1-0.3,0.4-0.3,0.4c-0.4,0.5-0.6,0.9-1.1,1.1c-0.2,0.1-0.4,0.1-0.7,0.1c-0.3,0-0.7-0.1-1-0.1c-1.2-0.3-2.2-0.4-3.1-0.4
		c-0.7,0-1.3,0.1-1.8,0.2c0,0,0,0,0-0.1c-0.2-0.9-1.2-1.1-1.9-1.3c-0.2-0.1-0.4-0.1-0.5-0.2c-0.3-0.1-0.5-0.2-0.8-0.3
		c-0.4-0.1-0.7-0.3-1-0.5c-0.4-0.3-0.7-0.6-1-1.1c-0.5-0.7-0.7-1.6-0.9-2.7c-0.1-0.5-0.1-1-0.1-1.3l0-0.6c0-0.3-0.2-0.6-0.2-0.7l0,0
		c-0.2-0.3-0.5-0.5-0.8-0.5c-0.1,0-0.2,0-0.3,0l0-0.1L34,22.3c-0.1,0.1-0.3,0.2-0.3,0.4c-0.1,0.1-0.2,0.3-0.2,0.5c0,0.2,0,0.4,0,0.6
		l0,0.2c0,0.5,0.1,1.1,0.1,1.6c0.2,1.2,0.5,2.3,1,3.2c0.6,1.1,1.6,2,2.9,2.5c0.4,0.2,1,0.4,1.6,0.6c0.1,0,0.3,0,0.6,0.1
		c0.4,0,0.6,0.1,0.7,0.1c-0.6,0.5-0.9,1.1-1.1,1.6c-0.3,1-0.1,2,0.1,2.9c0.1,0.4,0.2,0.9,0.2,1.4c0,0.4,0.4,0.7,0.8,0.7
		c0.4,0,0.8-0.3,0.8-0.8c0-0.3,0-0.6,0-0.9c0-0.8,0-1.5,0.1-2.3c0.1-0.9,0.5-1.3,1.4-1.5c0.3-0.1,0.5-0.1,0.8-0.1
		c0.7,0,1.3,0.1,2,0.3c0.5,0.1,1,0.2,1.5,0.3c0.2,0,0.3,0,0.5,0c1.8,0,3-1.1,3.6-2c0.8-1.2,1.6-1.9,2.6-1.9c0.1,0,0.2,0,0.3,0
		c1,0.1,1.7,0.7,2.3,1.6c0.7,0.9,1.3,2,1.7,3.1c0.2,0.5,0.6,1.5,0.3,2.2l-0.3,0.7h0.5c-0.1,0.6-0.1,1.3-0.2,1.9
		c-0.2,1.4-0.3,2.9-0.3,4.4c0,0.5,0,1,0.1,1.5c-0.2-0.3-0.3-0.7-0.4-1.1c-0.1-0.3-0.2-0.5-0.3-0.8L57.4,43c-0.2-0.5-0.4-1.1-0.8-1.6
		c-0.5-0.6-1.1-1.2-1.7-1.6c-1-0.7-2.2-0.8-3.3-0.8c-0.3,0-0.6,0-0.9,0L50,39l-0.5,0c-0.5,0-1.1,0-1.7-0.2c-0.5-0.1-0.7-0.4-1.1-0.7
		c-0.2-0.2-0.4-0.4-0.6-0.6c-0.2-0.1-0.3-0.2-0.5-0.2c-0.3,0-0.6,0.2-0.7,0.4c-0.1,0.3-0.1,0.6,0.1,0.8c0.1,0.1,0.2,0.2,0.2,0.3
		c0.3,0.4,0.6,0.8,1,1.2c0.5,0.4,1.2,0.6,2.1,0.7c0.5,0,0.9,0.1,1.3,0.1l1.1,0c0.9,0,1.7,0.1,2.4,0.3c1.3,0.6,1.7,1.7,2.2,3
		c0.4,1.2,0.9,2.5,2.1,3.4c-0.1,0.1-0.1,0.2-0.2,0.3c-0.1,0.1-0.1,0.2-0.2,0.3c-0.1,0.2-0.2,0.4-0.3,0.5c-1,0.8-2.3,1.3-4.1,1.4
		c-0.4,0-0.8,0-1.2,0c-1.1,0-2.3-0.1-3.3-0.2c-1.1-0.1-2.3-0.2-3.4-0.2c-0.7,0-1.4,0-2,0.1l0,0c-0.2,0-0.4,0-0.6-0.1
		c-0.7-0.1-1.4-0.4-2.3-0.9c-1-0.5-2.5-1.9-2.2-3c0.1-0.6,1-1,1.2-1.1c0.3-0.1,0.6-0.1,0.9-0.2c0.5-0.1,1.1-0.1,1.6-0.4
		c1.6-0.8,2-2.5,1.9-3.7c-0.1-0.5-0.5-0.8-1-0.8c-0.4,0-0.7,0.2-0.9,0.6c-0.1,0.3-0.2,0.5-0.3,0.8c-0.1,0.4-0.2,0.7-0.4,1
		c-0.2,0.3-0.9,0.4-1.5,0.5c-0.4,0-0.7,0.1-1,0.2c-0.8,0.2-1.4,0.6-1.9,1.1c-0.2-0.2-0.3-0.4-0.5-0.5c-0.3-0.3-0.7-0.5-1.1-0.7
		c-0.3-0.4-0.6-0.6-1-0.9c-0.2-0.1-0.3-0.2-0.5-0.3c-0.6-0.5-1-1.3-0.7-1.7c0.1-0.2,0.4-0.5,0.7-0.7c0.3-0.2,0.5-0.5,0.8-0.8
		c0.5-0.6,0.8-1.3,0.8-2.1c0-0.2-0.1-0.4-0.2-0.6c-0.1-0.1-0.3-0.2-0.6-0.2c-0.4,0-0.7,0.3-0.8,0.7c-0.1,0.7-0.5,1.2-1.3,1.9L32,38
		c-0.5,0.4-1.2,0.9-1.3,1.8c-0.1,0.9,0.1,1.6,0.7,2.5c-0.1,0-0.1,0-0.2,0c-1.7,0.4-2.7,1.9-3.1,2.6c-0.2,0.3-0.3,0.7-0.5,1
		c-0.4,0.9-0.6,1.6-1.6,1.9c-0.4,0.1-0.6,0.5-0.5,0.8c0.1,0.3,0.4,0.6,0.7,0.6h0l0.1,0c1.3-0.2,2.1-0.8,2.7-2l0.2-0.4
		c0.4-0.8,0.7-1.5,1.3-2.1c0.4-0.3,1-0.5,1.6-0.5c0.7,0,1.4,0.2,2,0.6c0.3,0.2,0.4,0.5,0.5,1c0.2,0.5,0.4,1,0.9,1.5
		c0.7,1.7,2.6,2.9,3.2,3.3c0.1,0.1,0.3,0.1,0.4,0.2c-1.1,0.4-2.1,1.1-2.7,1.9l-0.3,0c-1.1,0-2,0.1-2.9,0.2c-0.9,0.2-1.6,0.6-2.2,1
		c-0.2,0.1-0.4,0.2-0.6,0.4c-0.8,0.5-1.8,0.8-2.6,1c-0.5,0.2-1.1,0.2-1.6,0.2c-0.3,0-0.6,0-0.8-0.1c-1.4-0.3-2.1-1.6-2.8-3
		c-0.3-0.7-0.7-1.5-0.9-2.5c-0.1-0.3-0.1-0.6-0.2-0.9c-0.1-0.4-0.2-0.9-0.3-1.3c-0.1-0.4-0.4-0.6-0.8-0.6c-0.5,0-0.9,0.3-0.9,0.8
		c-0.2,0.7,0,1.5,0.2,2.2l0,0.2c0.2,0.9,0.5,1.8,1,2.8c0.7,1.6,1.7,3.4,3.6,4.1c0.7,0.2,1.4,0.4,2.1,0.4c1.4,0,2.7-0.4,3.8-0.8
		c0.9-0.3,1.8-0.8,2.5-1.3l0.2-0.1c0.8-0.5,2-0.5,3.2-0.5c0,0.1,0.1,0.3,0.1,0.4c0.6,1.7,2.7,2.5,4.2,3.1l0.4,0.1
		c0.7,0.3,1.4,0.5,2,0.9c0.2,0.2,0.4,0.3,0.6,0.5c0.3,0.3,0.5,0.5,0.8,0.7c0.6,0.5,1.4,0.7,2.2,0.7c0.3,0,0.5,0,0.8-0.1
		c0.6-0.1,0.9-0.5,0.9-1.1c0-0.5-0.5-1-1.1-1c-0.1,0-0.1,0-0.2,0c-0.1,0-0.2,0-0.3,0c-0.6,0-1-0.3-1.6-0.9c-0.3-0.2-0.6-0.5-0.9-0.8
		c-0.8-0.6-1.8-0.9-2.6-1.2c-0.9-0.3-1.7-0.7-2.4-1.2c-0.4-0.3-0.8-0.7-0.6-1.1c0.1-0.4,0.8-0.9,1.3-1.2c1.3-0.7,2.9-1.1,4.7-1.1
		c0.2,0,0.3,0,0.5,0c1.1,0,2.2,0.1,3.3,0.2c1.1,0.1,2.3,0.2,3.4,0.2c1,0,1.9-0.1,2.7-0.2c1.2-0.2,2.3-0.7,3.3-1.3
		c0,0.8,0.1,1.6,0.2,2.3c0.1,1,0.2,2.1,0.2,3.2c0,0.1-0.2,0.3-0.3,0.4c-0.2,0.3-0.5,0.7-0.5,1.1c-0.5,0.6-1,1-1.7,1.2
		c-0.3,0.1-0.6,0.2-1,0.4c-0.4,0.1-0.8,0.3-1.2,0.5c-0.4,0.1-0.5,0.5-0.5,0.9c0,0.2,0.1,0.3,0.2,0.3c0.2,0.2,0.4,0.3,0.6,0.3
		c0,0,0,0,0,0c1.7,0,3-0.5,4.3-1.4c0.1-0.1,0.2-0.1,0.3-0.2c0.2,0.5,0.2,1.2,0.3,2.1c0,0.9,0,2,0,3.2c0,0.9-0.1,1.9-0.1,3
		c0,0.2,0,0.5,0,0.7c0,0.3,0,0.7,0.1,1c0,0.4,0.1,0.8,0.1,1.2c-0.7-0.4-1.4-0.5-2.1-0.5c-0.2,0-0.3,0-0.5,0l0,0
		c-0.9-0.3-1.5-0.8-2-1.4c-0.2-0.3-0.4-0.7-0.5-1.1c-0.1-0.4-0.3-0.9-0.6-1.3c-0.5-0.8-1.4-1.4-2.4-1.5l-0.1,0
		c-0.3,0-0.7,0.2-0.8,0.5c-0.2,0.3-0.1,0.6,0.1,0.9c0.2,0.2,0.4,0.4,0.6,0.6l0.2,0.2c0.4,0.3,0.6,0.6,0.8,1c0.2,0.5,0.4,1.1,0.6,1.6
		c0.2,0.3,0.4,0.6,0.6,0.8c0.3,0.4,0.8,0.7,1.2,1c-0.3,0.4-0.6,0.8-0.9,1.2c-0.3,0.4-0.5,0.8-0.8,1.1c-0.8,0.9-2.1,1-3.3,1
		c-0.3,0-0.7,0-1,0l-0.4,0c-0.4,0-0.7,0.3-0.8,0.6c-0.1,0.4,0.2,0.7,0.5,0.8c0.7,0.2,1.5,0.3,2.3,0.3c0.8,0,1.6-0.1,2.3-0.4
		c1.2-0.4,2.2-1.4,3-2.5l0.1-0.1c0.4-0.5,0.7-0.8,1.2-1c0.2-0.1,0.5-0.1,0.7-0.1c0.3,0,0.6,0.1,1,0.2c0.2,0.1,0.4,0.2,0.6,0.3
		c-0.2,0.5-0.4,0.9-0.8,1.3l-0.2,0.2l0,0.2c0,0.1,0,0.2,0,0.3C57.4,76.8,55.7,78.5,52.9,78.5z"/>
	<path fill="#FFFFFF" d="M28,98.2c-2.1,0-3.9-0.9-5.1-2.7c0.2-0.7,0.4-1.1,0.7-1.5c0.2-0.4,0.4-0.8,0.6-1.3c0.5,0.1,1.1,0.2,1.7,0.2
		c0.2,0,0.4,0,0.6,0c0.6,0,1-0.1,1.5-0.1c0.2,0,0.5,0,0.7,0c0.6,0,1.2,0.2,1.9,0.4l0.5,0.1c0.5,0.2,0.9,0.2,1.1,0.2
		c0.6,0,0.8-0.4,0.8-0.5c0.1-0.3,0.1-0.7-0.7-1.2c-1.2-0.8-3.2-1.1-4.6-1.1l-0.1,0c-0.3,0-0.6,0-0.9,0c-0.3,0-0.7,0-1,0
		c-0.1,0-0.2,0-0.4,0c-0.6,0-1.3-0.3-2.1-0.7c-0.4-0.2-0.7-0.7-1-1.2l-0.5-0.8c-0.3-0.4-0.5-0.8-0.8-1.3c-0.2-0.3-0.4-0.7-0.6-1
		c-0.4-0.7-1.1-1.6-2-2.3c-0.2-0.1-0.3-0.2-0.5-0.2c-0.4,0-0.7,0.2-0.8,0.5c-0.1,0.3-0.1,0.7,0.2,0.9c0.8,0.6,1.2,1.5,1.6,2.3
		l0.2,0.4c0.1,0.2,0.2,0.5,0.3,0.7l0.1,0.2c0.6,1.2,1.3,2.6,2.5,3.4c0.1,0.1,0.2,0.1,0.3,0.2c-0.1,0.3-0.3,0.7-0.5,1.1
		c-0.3,0.5-0.5,0.9-0.7,1.3c-0.9,0.5-1.9,0.8-2.9,0.8c-1,0-2.1-0.3-3.3-0.8c-2.7-1.3-5.1-3.8-6.8-5.8c1-1.1,1.1-2.7,1.2-3.8l0-0.2
		c0.1-0.7,0.2-1.4,0.7-1.9c0.1-0.1,0.3-0.2,0.5-0.2c0.3,0,0.6,0.1,1,0.2c0.3,0.1,0.6,0.2,0.9,0.2l0.2,0c0.5,0,0.9-0.3,1-0.7
		c0.1-0.4-0.1-0.9-0.5-1.1c-0.8-0.4-1.6-0.6-2.4-0.6c-1,0-1.8,0.3-2.4,1c-0.6,0.6-0.8,1.4-0.9,2.2c-0.1,0.4-0.1,0.8-0.1,1.2
		c0,0.5-0.1,1-0.2,1.4c-0.1,0.2-0.1,0.4-0.2,0.6c-0.3-0.2-0.7-0.4-1.2-0.5c-1.6-0.5-4-1.2-4-6.8c0-0.9,0.2-2.4,1.1-4.5
		c0.7,0,1.3-0.1,1.9-0.3c0.8-0.2,1.5-0.7,2.1-1.2c0.2-0.2,0.5-0.3,0.7-0.5c0.2-0.1,0.3-0.2,0.5-0.3l0.1-0.1c0.5-0.4,1.1-0.8,1.7-0.9
		c0.2-0.1,0.5-0.1,0.8-0.1c0.6,0,1.3,0.1,2.2,0.4c1.8,0.6,3.3,1.6,4.8,2.7l0.3,0.2c0.2,0.1,0.4,0.2,0.6,0.2c0.3,0,0.6-0.2,0.8-0.4
		c0.2-0.3,0.1-0.6,0-0.9c-0.4-0.6-1-1-1.6-1.4c-0.2-0.1-0.3-0.2-0.5-0.3c-0.9-0.7-1.8-1.2-2.8-1.6c-0.8-0.3-2.3-0.8-3.9-0.8
		c-0.8,0-1.5,0.1-2,0.4c-0.8,0.3-1.5,0.8-2.1,1.2c-1,0.7-1.9,1.3-3,1.5c-0.2,0-0.5,0.1-0.7,0.1C2.3,72.5,2,72,1.7,71.5
		c-0.7-1.2-1.6-2.7-1.6-4.6c0-1.4,0.3-2.5,0.5-3.7c0.1-0.4,0.2-0.8,0.3-1.2c0.2-0.3,0.4-0.5,0.6-0.7c0.5-0.5,1.2-0.9,2.3-1.1
		c0.6-0.1,1.4-0.3,2.1-0.3c0.4,0,0.7,0,1,0.1c0.4,0.1,0.6,0.3,0.9,0.8c0.2,0.3,0.4,0.7,0.8,1c0.8,1.8,1.7,3.1,2.9,4.1
		c1.2,1,2.6,1.3,4,1.7c1.1,0.3,2.1,0.5,3,1.1c0.1,0.1,0.3,0.3,0.4,0.3c0.3,0.3,0.7,1,1.2,1.6c1.1,1.7,2.6,3.9,4.9,4.7
		c0.5,0.2,1.1,0.3,1.6,0.3c0.6,0,1.1-0.1,1.5-0.2c0.3-0.1,0.5-0.1,0.7-0.1c0.1,0,0.3,0,0.4,0.1c0.4,0.2,0.8,0.5,1.2,0.9
		c0.5,0.4,1,0.9,1.6,1.2c0.2,0.1,0.5,0.2,0.7,0.3c0.2,0.1,0.5,0.1,0.7,0.1c0.6,0,1.2-0.2,1.6-0.4c0.4-0.2,0.8-0.3,1.2-0.3
		c0.4,0,0.9,0.5,1.3,0.8l0.1,0.1c0.6,0.5,1.2,1.1,2.1,1.5l0.1,0c0.1,0.1,0.2,0.1,0.3,0.1c0.4,0.2,0.8,0.2,1.2,0.2
		c0.6,0,1.2-0.1,1.7-0.3c0.5-0.1,0.9-0.2,1.3-0.2c0.3,0,0.6,0,0.8,0c0,0,0.1,0,0.1,0c-0.2,0.4-0.3,0.9-0.5,1.4
		c-0.7,2.2-1.6,5-4.3,6.7c-0.3-0.4-0.8-0.7-1.3-1.1c-0.3-0.2-0.7-0.5-1-0.7c-0.4-0.3-0.8-0.5-1.2-0.8c-0.1,0-0.3-0.2-0.3-0.2
		c-1.2-0.9-2.4-1.4-3.8-1.6l-0.4-0.1c-0.6-0.1-1.2-0.2-1.7-0.5c-0.4-0.2-0.7-0.8-1-1.2l-0.1-0.2c-0.4-0.7-0.8-1.3-1.5-1.8
		c-0.4-0.3-0.8-0.5-1.3-0.6c-0.2,0-0.4-0.1-0.6-0.1c-0.5,0-1,0.1-1.4,0.2l-0.3,0.1c-0.5,0.1-1.1,0.1-1.7,0.1c-0.3,0-0.6,0-1,0
		c-0.2,0-0.5,0-0.7-0.1c-0.6-0.1-1.1-0.1-1.7-0.1c-0.9,0-1.6,0.1-2.2,0.4c-1.8,0.9-1.4,2.5-1.2,3.3c0.1,0.3,0.4,0.6,0.8,0.6
		c0.2,0,0.5-0.1,0.6-0.3c0.2-0.2,0.2-0.4,0.2-0.7l0-0.1c-0.2-0.8-0.1-0.9,0.2-1c0.5-0.2,1.1-0.3,1.5-0.3c0.1,0,0.2,0,0.3,0
		c0.5,0,1.1,0.1,1.7,0.1c0.6,0.1,1.2,0.1,1.9,0.1c0.2,0,0.3,0,0.5,0c0.4,0,0.8-0.1,1.2-0.2c0.4-0.1,0.8-0.2,1.2-0.2
		c0.2,0,0.4,0,0.6,0.1c0.1,0.1,0.2,0.1,0.3,0.2c0.4,0.3,0.6,0.7,0.8,1.2c0.2,0.5,0.5,1,0.9,1.4c0.9,1,2.2,1.3,3.3,1.6l0.4,0.1
		c0.5,0.1,1,0.2,1.4,0.4c0.5,0.2,0.9,0.5,1.3,0.8l0.1,0.1c0.2,0.1,0.3,0.2,0.5,0.4l0.9,0.6c0.5,0.4,1.1,0.7,1.6,1.1
		c0.1,0,0.1,0.1,0.1,0.1l0.1,0.1c0.3,0.3,0.5,0.6,0.7,0.9c0.1,0.1,0.1,0.2,0.2,0.4c-0.1,0.4-0.2,0.7-0.4,1.2c-0.4,0.9-1,1.7-1.7,2.5
		C34.8,96.4,31.2,98.2,28,98.2z"/>
	<path fill="#FFFFFF" d="M63.9,18.9c-0.1-0.3-0.2-0.6-0.3-0.8c-0.1-0.3-0.2-0.5-0.2-0.6c0.9-2.5,0.3-8.3,0.3-8.6c0,0,0,0,0,0
		c0.1,0.2,0.2,0.3,0.4,0.5c0.7,0.7,1.4,1.3,2.2,1.5c0,0.2,0,0.5,0,0.7c0,0.4,0,0.8-0.1,1.1c-0.1,0.2-0.1,0.4-0.2,0.6l0,0.1
		c-0.1,0.4-0.2,0.7-0.3,1l-0.1,0.3c-0.3,1.1-0.5,2.2-1.1,3.1C64.4,18.2,64.1,18.6,63.9,18.9z"/>
	<path fill="#FFFFFF" d="M94.1,98.2c-5,0-9.9-4.2-11.2-7.9c0,0-0.1-0.3-0.1-0.3c0-0.1,0.1-0.3,0.2-0.4c0.1-0.2,0.3-0.4,0.5-0.7
		c0.2-0.2,0.3-0.3,0.5-0.4c0.5-0.4,1-0.7,1.5-1l0.1-0.1c0.5-0.3,1-0.6,1.4-1c0.5-0.4,1-0.7,1.5-0.9c0.4-0.2,0.9-0.3,1.4-0.4l0.4-0.1
		c1.2-0.3,2.4-0.6,3.3-1.6c0.4-0.4,0.7-0.9,0.9-1.4c0.3-0.5,0.5-0.9,0.8-1.2c0.2-0.2,0.5-0.3,0.9-0.3c0.4,0,0.8,0.1,1.2,0.2
		c0.4,0.1,0.8,0.2,1.2,0.2c0.2,0,0.3,0,0.5,0c0.6,0,1.3-0.1,1.9-0.1c0.6-0.1,1.1-0.1,1.7-0.1c0.1,0,0.2,0,0.3,0
		c0.4,0,0.8,0.1,1.1,0.1c0.2,0,0.3,0.1,0.5,0.2c0.2,0.1,0.3,0.2,0.2,0.6c0,0.1,0,0.2-0.1,0.3l0,0.1c0,0.2,0,0.5,0.2,0.7
		c0.2,0.2,0.4,0.3,0.6,0.3c0.2,0,0.5-0.1,0.6-0.3c0,0,0.1-0.1,0.2-0.3c0.2-0.8,0.6-2.4-1.2-3.3c-0.5-0.3-1.1-0.4-1.9-0.4
		c-0.1,0-0.2,0-0.3,0c-0.5,0-1.1,0.1-1.6,0.1c-0.3,0-0.5,0.1-0.8,0.1c-0.3,0-0.7,0-1,0c-0.6,0-1.2,0-1.7-0.2l-0.3-0.1
		c-0.5-0.1-0.9-0.2-1.4-0.2c-0.2,0-0.4,0-0.6,0.1c-1.6,0.3-2.3,1.5-2.8,2.4l-0.1,0.2c-0.3,0.5-0.6,1-1,1.2c-0.5,0.3-1.1,0.4-1.7,0.5
		l-0.5,0.1c-1.5,0.3-2.7,0.8-4.1,1.8c-0.4,0.3-0.8,0.5-1.2,0.8c-0.3,0.2-0.6,0.4-0.8,0.6c-0.4,0.3-1,0.7-1.5,1.2
		c-0.2-0.1-0.4-0.3-0.6-0.4c-2.2-1.7-3-4.3-3.7-6.3c-0.2-0.5-0.3-0.9-0.5-1.3c0.1,0,0.1,0,0.2,0c0.2,0,0.5,0,0.8,0
		c0.4,0,0.9,0.1,1.3,0.2c0.6,0.1,1.2,0.3,1.8,0.3c0.4,0,0.7-0.1,1-0.2c0.1,0,0.1,0,0.2-0.1c1-0.4,1.7-1,2.4-1.6l0.1-0.1
		c0.5-0.5,1-0.9,1.4-0.9c0,0,0,0,0,0c0.4,0,0.8,0.1,1.2,0.3c0.5,0.2,1,0.4,1.7,0.4c0.2,0,0.5,0,0.7-0.1c0.9-0.3,1.6-0.9,2.3-1.4
		c0.4-0.3,0.8-0.7,1.2-0.9c0.1-0.1,0.3-0.1,0.4-0.1c0.2,0,0.4,0.1,0.7,0.1c0.4,0.1,0.9,0.2,1.5,0.2c0.5,0,0.9-0.1,1.4-0.2
		c0,0,0.1,0,0.1,0c2.3-0.8,3.7-3,4.9-4.7c0.4-0.7,0.8-1.3,1.2-1.7c0.1-0.1,0.3-0.2,0.4-0.3c0.9-0.5,1.9-0.8,2.9-1.1
		c1.4-0.4,2.7-0.7,4-1.7c1.2-0.9,2.1-2.2,2.9-4.1c0.4-0.3,0.6-0.6,0.8-0.9c0.3-0.4,0.5-0.7,0.9-0.8c0.3-0.1,0.6-0.1,1-0.1
		c0.7,0,1.5,0.2,2.1,0.3c1,0.2,1.8,0.6,2.2,1.1c0.2,0.2,0.4,0.4,0.6,0.7c0.1,0.5,0.2,0.9,0.3,1.3c0.3,1.2,0.5,2.3,0.5,3.7
		c0,2-0.8,3.4-1.6,4.6c-0.3,0.5-0.6,0.9-0.8,1.4c-0.3,0-0.5,0-0.7-0.1c-1.1-0.2-2-0.8-3-1.5c-0.7-0.5-1.4-0.9-2.1-1.3
		c-0.6-0.3-1.3-0.4-2-0.4c-1.5,0-3.1,0.5-3.9,0.8c-1,0.4-1.9,0.9-2.8,1.6c-0.1,0.1-0.3,0.2-0.4,0.3c-0.6,0.4-1.2,0.9-1.6,1.5
		c-0.2,0.3-0.2,0.6,0,0.9c0.2,0.3,0.5,0.4,0.8,0.4c0.2,0,0.4-0.1,0.6-0.2l0.3-0.2c3-2.2,3.6-2.3,4.8-2.7c0.9-0.3,1.6-0.4,2.2-0.4
		c0.3,0,0.6,0,0.8,0.1c0.6,0.2,1.1,0.5,1.7,0.9c0.2,0.1,0.4,0.3,0.6,0.4c0.2,0.1,0.4,0.3,0.6,0.4l0.1,0.1c0.6,0.4,1.3,1,2.1,1.2
		c0.6,0.2,1.2,0.3,1.9,0.3c0.9,2.1,1.1,3.6,1.1,4.5c0,5.6-2.4,6.3-4,6.8c-0.4,0.1-0.8,0.2-1.2,0.5c0-0.1-0.1-0.2-0.1-0.3
		c-0.1-0.5-0.1-1-0.2-1.4c0-0.5-0.1-0.8-0.1-1.2c-0.1-0.7-0.3-1.6-0.9-2.2c-0.6-0.7-1.5-1-2.4-1c-0.8,0-1.6,0.2-2.4,0.6
		c-0.4,0.2-0.6,0.6-0.5,1.1c0.1,0.4,0.5,0.7,1,0.7l0.1,0c0.3,0,0.6-0.1,0.9-0.2c0.3-0.1,0.7-0.2,1-0.2c0.2,0,0.3,0,0.5,0.2
		c0.5,0.5,0.6,1.2,0.7,1.9l0,0.1c0.1,1.1,0.2,2.5,1,3.6c-1.5,1.8-3.7,4.1-6.2,5.5c-1.4,0.8-2.7,1.2-4,1.2c-1,0-1.9-0.3-2.8-0.8
		c-0.2-0.4-0.4-0.9-0.7-1.3c-0.2-0.4-0.4-0.8-0.6-1.1c0.1-0.1,0.2-0.1,0.3-0.2c1.2-0.8,1.9-2.3,2.5-3.4l0.1-0.2
		c0.1-0.2,0.2-0.5,0.4-0.7c0.5-1,0.9-2,1.8-2.7c0.3-0.2,0.4-0.6,0.2-0.9c-0.1-0.3-0.5-0.5-0.8-0.5c-0.2,0-0.4,0.1-0.5,0.2
		c-1.2,0.9-1.9,2.1-2.6,3.4c-0.2,0.4-0.5,0.9-0.8,1.3l-0.4,0.6l-0.1,0.2c-0.3,0.4-0.6,0.9-1,1.2c-0.7,0.4-1.4,0.7-2.1,0.7
		c-0.1,0-0.2,0-0.4,0c-0.3,0-0.7,0-1,0c-0.3,0-0.6,0-0.9,0l-0.1,0c-1.4,0-3.4,0.4-4.6,1.1c-0.7,0.4-0.8,0.9-0.7,1.2
		c0.1,0.3,0.3,0.5,0.8,0.5c0.2,0,0.6-0.1,1.1-0.2l0.5-0.1c0.6-0.2,1.2-0.4,1.9-0.4c0.2,0,0.5,0,0.7,0c0.5,0,0.9,0,1.4,0
		c0.3,0,0.5,0,0.7,0c0.6,0,1.2-0.1,1.7-0.2c0.2,0.5,0.4,0.9,0.6,1.3c0.3,0.4,0.5,0.8,0.7,1.5C98.1,97.2,96.3,98.2,94.1,98.2z"/>
	<path fill="#FFFFFF" d="M119.8,39c-0.1,0.2-0.2,0.4-0.3,0.6c-0.5,0.7-1.1,1.4-1.9,2c-0.6,0.5-1.4,1.2-2.2,1.6
		c-0.4,0.2-1,0.4-1.5,0.4c-0.2,0-0.4,0-0.5-0.1c-0.5-0.4-0.1-1.5,0.1-2.2c0,0,0.1-0.4,0.1-0.5c0.3-1,0.6-1.9,1-2.7
		c0.1-0.2,0.2-0.4,0.3-0.5c0.3-0.6,0.7-1.2,0.9-1.8c0.1-0.3,0-0.6-0.1-0.8c-0.2-0.2-0.5-0.4-0.8-0.4c-0.3,0-0.5,0.1-0.7,0.3
		c-0.5,0.5-0.9,1-1.3,1.7c0-0.1-0.1-0.2-0.1-0.3c-0.3-0.7-0.8-1.4-1.4-1.8c-0.5-0.4-1-0.6-1.5-0.8c-0.2-0.1-0.4-0.1-0.6-0.2
		c-1.1-0.5-1.9-1.6-2.3-3.2c-0.1-0.5-0.2-0.9-0.2-1.3c0-0.1,0-0.3,0-0.4c0-0.3,0.1-0.6,0.1-0.8c0-0.7-0.1-1.5-0.5-2.3
		c0.6-1.5,0.5-3.1-0.1-4.4c-0.1-0.2-0.2-0.4-0.3-0.6c-0.7-1.5-1.5-3.7-3.7-4.2l0,0l-0.2,0c-0.3,0-0.6,0.2-0.8,0.5
		c-0.2,0.3-0.1,0.6,0.1,0.9c0.3,0.3,0.6,0.6,0.9,0.9c0.5,0.4,0.9,0.7,1.1,1.2c0.1,0.2,0.1,0.3,0.2,0.5l0,0.1
		c0.1,0.2,0.2,0.5,0.3,0.7l0.2,0.4c0.1,0.3,0.3,0.6,0.4,0.9c0.3,1.3-0.2,2.9-1.2,4c-0.6,0.6-1.2,1-1.8,1.1c-0.3,0.1-0.7,0.1-1.1,0.1
		c-0.5,0-0.9-0.1-1.5-0.1l-0.2,0c-0.3,0-0.5-0.1-0.8-0.1c-0.3,0-0.7,0-1.1,0.1c0.1-1.5-0.1-2.9-0.8-4c-0.1-0.3-0.4-0.4-0.7-0.4
		c-0.2,0-0.5,0.1-0.6,0.3c-0.2,0.2-0.2,0.4-0.2,0.7l0.1,0.3c0.1,0.4,0.2,0.9,0.2,1.3c0,0.8,0,1.7-0.2,2.7c-0.2,0.8-0.6,1.4-1,2.2
		c-0.3,0.5-0.6,1-0.7,1.5c-1.1-1-2-1.5-2.9-1.5c-0.2,0-0.4,0-0.5,0.1c-0.4,0.1-0.6,0.4-0.6,0.8c0,0.4,0.2,0.7,0.6,0.8
		c0.2,0.1,0.4,0.1,0.6,0.2c0.3,0.1,0.5,0.1,0.7,0.2c0.4,0.2,0.7,0.4,1,0.6c0.5,0.4,0.8,0.7,1.1,1.1c0,0.4,0.1,0.8,0.3,1.1
		c0.6,1.7,1.8,3,3.4,3.7c1,0.4,2.1,0.7,3,0.9c0.5,0.1,0.9,0.2,1.4,0.2c0.6,0.1,1.1,0.2,1.7,0.3c0.9,0.2,1.7,0.7,2.4,1.4
		c0.6,0.6,0.7,1.5,0.8,2.4c0.1,1-0.2,1.9-0.4,2.9c-0.2,0.9-0.5,1.9-0.4,2.9c0,1.5,0.1,3.1,1.2,4.3c0.2,0.2,0.4,0.4,0.7,0.6
		c-0.2,0.1-1.1,0.4-1.1,0.4c-1.2,0.4-1.9,1-2.3,1.8c-0.4,0.8-0.6,1.7-0.5,2.8c0,0.4,0.1,0.8,0.1,1.1c0.1,0.6,0.1,1.2,0.1,1.7
		c-0.1,1-0.3,2-0.2,3.2c0,0.4-0.1,0.7-0.4,1.1c-0.8,0.6-1.4,1.5-2,2.3c-1,1.3-2,2.6-3.5,3.3c-0.3,0.1-0.6,0.2-0.9,0.2
		c-0.2,0-0.4,0-0.7-0.1c-0.3-0.1-0.5-0.1-0.9-0.1c-0.2,0-0.4,0-0.7,0.1c-0.3,0.1-0.7,0.3-1,0.5c-2.3,1.6-3.3,1.8-3.8,1.8
		c-0.3,0-0.5,0-0.8-0.1c0,0-0.1,0-0.1,0c0.2-0.3,0.4-0.5,0.5-0.8c0.5-0.8,0.8-1.5,1.2-2.4c0.7-1.8,1-3.5,0.8-4.9
		c-0.1-0.7-0.3-1.5-0.8-2.1c0,0,0.1-0.3,0.1-0.3c0.2-0.4,0.5-0.7,1-1c0.5-0.3,1-0.7,1.5-0.8c0.4-0.1,0.8-0.1,1.3-0.2l0.6,0
		c0.2,0,0.4,0,0.6,0c0.3,0,0.4,0,0.5,0.1c0.4,0.2,0.8,0.5,1.1,0.8c0.3,0.4,0.6,0.9,0.9,1.3c0.2,0.4,0.4,0.7,0.6,1
		c0.2,0.2,0.4,0.3,0.7,0.3c0.2,0,0.4-0.1,0.5-0.2c0.2-0.2,0.2-0.4,0.2-0.6c-0.1-1.6-0.8-3-1.8-3.9c-0.5-0.4-1.2-0.9-2-1
		c-0.2,0-0.5,0-0.7,0c-0.5,0-1,0.1-1.3,0.1l-0.3,0c-0.9,0.1-1.6,0.5-2.1,0.9c-0.2,0.1-0.3,0.2-0.5,0.3c-0.5,0.3-0.9,0.6-1.3,1
		c-0.3,0.3-0.5,0.6-0.7,0.9c-0.7-0.5-1.4-0.7-2.2-0.7c-0.5,0-0.9,0.1-1.4,0.2c-1,0.3-1.7,0.9-2.4,1.4c-0.3,0.2-0.6,0.5-0.9,0.7
		c-0.7,0.4-1.3,0.6-2,0.7c-0.2,0-1,0.1-1,0.1c-0.3,0-0.6,0-0.9,0.1c-0.4,0.1-0.7,0.4-0.7,0.8c0,0.4,0.3,0.8,0.7,0.8
		c0.4,0.1,0.8,0.1,1.3,0.1c0.1,0,0.3,0,0.4,0l0.2,0c0.7,0,1.3-0.2,1.8-0.3c0.9-0.3,1.5-0.8,2.2-1.3c0.2-0.1,0.3-0.2,0.4-0.3
		c0.8-0.6,1.5-0.9,2.2-0.9c0.3,0,0.6,0.1,0.9,0.3c0.7,0.5,1.2,1.3,1.2,2.3c0,1.1-0.3,2.2-0.6,3.2l-0.2,0.4c-0.3,0.9-0.6,1.6-1,2.1
		c-0.5,0.8-1.1,1.4-1.9,2.1c-0.1,0.1-0.2,0.2-0.4,0.3c-0.7,0.5-1.4,0.9-2.2,1.3c-0.1,0.1-0.2,0.1-0.3,0.2c-0.4,0.2-0.7,0.2-1,0.3
		c-0.1,0-0.2,0-0.3,0c-0.4,0-0.8,0-1.2-0.1C78.6,77,78.3,77,78,77l-0.5,0c-0.5,0-0.9-0.1-1.4-0.1c-0.2,0-0.5,0-0.8,0
		c-0.2-0.1-0.4-0.1-0.6-0.1c-0.6,0-1.2,0.3-1.8,0.6c-0.9,0.5-2,1.1-3.7,1.1c-1,0-1.9-0.2-2.6-0.6c-0.7-0.4-1.3-1-1.6-1.6
		c0,0,0,0,0,0c-0.2-0.4-0.3-0.8-0.3-1.2c0-0.1,0-0.2,0-0.3l0-0.2l-0.2-0.2c-0.4-0.4-0.6-0.8-0.8-1.3c0.2-0.2,0.4-0.3,0.6-0.3
		c0.4-0.1,0.7-0.2,1-0.2c0.3,0,0.5,0,0.7,0.1c0.5,0.2,0.8,0.5,1.2,1l0.1,0.1c0.8,1,1.8,2.1,3,2.5c0.7,0.3,1.5,0.4,2.3,0.4
		c0.8,0,1.5-0.1,2.3-0.3c0.4-0.1,0.6-0.5,0.5-0.9c-0.1-0.4-0.4-0.6-0.8-0.6l-0.4,0c-0.3,0-0.7,0-1,0c-1.4,0-2.5-0.2-3.3-1
		c-0.3-0.3-0.5-0.7-0.8-1.1c-0.3-0.4-0.5-0.8-0.9-1.2c0.5-0.3,0.9-0.6,1.2-1c0.6-0.7,0.9-1.4,1.1-2l0.1-0.4c0.2-0.4,0.4-0.7,0.8-1
		l0.2-0.1c0.3-0.2,0.5-0.4,0.7-0.6c0.2-0.3,0.3-0.6,0.1-0.9c-0.2-0.3-0.5-0.5-0.8-0.5l-0.1,0c-1,0.1-1.9,0.7-2.4,1.5
		c-0.3,0.5-0.4,0.9-0.6,1.3l-0.1,0.3c-0.1,0.3-0.2,0.6-0.4,0.8c-0.5,0.6-1.2,1.1-2,1.4c-0.2,0-0.3,0-0.5,0c-0.7,0-1.4,0.2-2.1,0.6
		c0-0.4,0-0.8,0.1-1.2c0-0.4,0.1-0.9,0.1-1.3c0-0.1,0-0.3,0-0.4c0-1.1,0-2.1-0.1-3c0-1.2-0.1-2.3,0-3.1c0-0.9,0.1-1.5,0.2-2
		c0,0,0,0,0,0c1.3,1.2,2.8,1.8,4.6,1.8c0.5,0,0.8-0.3,0.9-0.6c0-0.2,0-0.4-0.1-0.6c-0.1-0.2-0.2-0.3-0.4-0.3
		c-0.4-0.2-0.8-0.3-1.1-0.4c-0.4-0.1-0.7-0.3-1.1-0.4C66.1,59,65.6,58.6,65,58c0,0-0.1-0.1-0.1-0.1c0.1-0.5-0.2-0.9-0.5-1.2
		c-0.1-0.2-0.3-0.4-0.3-0.5c0-1,0.1-2.1,0.2-3.1c0.1-0.8,0.2-1.6,0.2-2.4c1,0.7,2.1,1.1,3.3,1.3c0.8,0.1,1.7,0.2,2.7,0.2
		c1.1,0,2.3-0.1,3.4-0.2c1.1-0.1,2.2-0.2,3.3-0.2c0.2,0,0.3,0,0.5,0c1.9,0,3.5,0.4,4.7,1.1c0.6,0.3,1.2,0.7,1.3,1.2
		c0.1,0.4-0.3,0.8-0.6,1.1c-0.7,0.5-1.6,0.9-2.4,1.2c-0.9,0.3-1.8,0.7-2.6,1.3c-0.3,0.2-0.6,0.5-0.9,0.8c-0.6,0.5-1,0.9-1.6,0.9
		c-0.1,0-0.2,0-0.3,0c0,0-0.1,0-0.2,0c-0.7,0-1.1,0.5-1.1,1c0,0.5,0.3,1,0.9,1.1c0.3,0,0.6,0.1,0.8,0.1c0.8,0,1.6-0.2,2.2-0.7
		c0.3-0.2,0.5-0.5,0.8-0.7c0.2-0.2,0.4-0.4,0.6-0.6c0.5-0.4,1.3-0.7,1.9-0.9l0.4-0.2c1.5-0.6,3.6-1.4,4.3-3.1c0-0.1,0.1-0.3,0.1-0.4
		c1.2,0,2.3,0,3.2,0.5l0.2,0.1c0.8,0.5,1.6,1,2.5,1.3c1.1,0.4,2.5,0.8,3.8,0.8c0.8,0,1.5-0.1,2.1-0.4c1.9-0.7,2.9-2.5,3.6-4.1
		c0.5-1,0.8-2,1-2.8l0-0.2c0.2-0.7,0.4-1.5,0.2-2.2c-0.1-0.4-0.4-0.8-0.9-0.8c-0.4,0-0.7,0.2-0.8,0.6c-0.1,0.4-0.2,0.9-0.3,1.3
		c-0.1,0.3-0.1,0.7-0.2,1c-0.3,1-0.6,1.8-0.9,2.5c-0.6,1.3-1.4,2.7-2.8,3c-0.3,0-0.6,0.1-0.9,0.1c-0.5,0-1-0.1-1.6-0.2
		c-1-0.3-1.9-0.5-2.6-1c-0.2-0.1-0.3-0.2-0.5-0.3c-0.7-0.4-1.4-0.9-2.3-1c-0.9-0.2-1.8-0.2-2.9-0.2l-0.3,0c-0.6-0.9-1.7-1.5-2.7-1.9
		c0.1-0.1,0.3-0.1,0.4-0.2c0.6-0.3,2.6-1.5,3.2-3.3c0.5-0.5,0.7-1,0.8-1.5c0.2-0.4,0.3-0.8,0.6-1c0.5-0.4,1.3-0.6,2-0.6
		c0.6,0,1.2,0.2,1.6,0.5c0.7,0.5,1,1.3,1.3,2.1l0.2,0.4c0.5,1.2,1.4,1.8,2.7,2l0.1,0c0.4,0,0.7-0.3,0.8-0.6c0.1-0.4-0.1-0.7-0.5-0.8
		c-0.9-0.3-1.2-1-1.5-1.9c-0.1-0.4-0.3-0.7-0.5-1c-0.4-0.7-1.3-2.2-3.1-2.6c-0.1,0-0.1,0-0.2,0c0.6-0.9,0.8-1.7,0.7-2.5
		c-0.1-0.9-0.8-1.4-1.3-1.8l-0.1-0.1c-0.8-0.6-1.2-1.2-1.3-1.9c-0.1-0.4-0.4-0.7-0.8-0.7c-0.2,0-0.4,0.1-0.5,0.2
		c-0.2,0.1-0.2,0.4-0.2,0.6c0,0.8,0.3,1.5,0.8,2.1c0.2,0.3,0.5,0.5,0.8,0.8c0.3,0.3,0.5,0.5,0.7,0.7c0.3,0.5-0.1,1.2-0.7,1.8
		c-0.1,0.1-0.3,0.2-0.4,0.3c-0.3,0.2-0.7,0.5-1,0.9c-0.4,0.2-0.8,0.4-1.1,0.7c-0.2,0.2-0.3,0.3-0.5,0.5c-0.5-0.5-1.1-0.9-1.9-1.1
		c-0.3-0.1-0.6-0.1-1-0.2c-0.6-0.1-1.3-0.2-1.5-0.5c-0.2-0.3-0.3-0.6-0.4-1c-0.1-0.3-0.2-0.5-0.3-0.8c-0.2-0.3-0.5-0.6-0.9-0.6
		c-0.5,0-0.9,0.3-1,0.8c-0.1,1.2,0.3,2.9,1.9,3.7c0.5,0.2,1.1,0.3,1.5,0.4c0.4,0,0.7,0.1,1,0.2c0.3,0.1,1.1,0.4,1.2,1.1
		c0.3,1.2-1.2,2.5-2.2,3c-0.8,0.5-1.6,0.7-2.3,0.9c-0.3,0-0.5,0.1-0.6,0.1c-0.6-0.1-1.3-0.1-2-0.1c-1.1,0-2.3,0.1-3.4,0.2
		c-1.1,0.1-2.2,0.2-3.4,0.2c-0.4,0-0.8,0-1.2,0c-1.8-0.1-3.1-0.6-4.1-1.4c-0.1-0.1-0.2-0.3-0.3-0.5c-0.1-0.1-0.1-0.2-0.2-0.4
		c-0.1-0.1-0.1-0.2-0.2-0.3c1.2-0.9,1.7-2.2,2.1-3.4c0.5-1.3,0.9-2.5,2.2-3.1c0.7-0.3,1.4-0.3,2.4-0.3l1.1,0c0.3,0,0.8,0,1.3-0.1
		c1-0.1,1.7-0.3,2.2-0.7c0.5-0.4,0.7-0.7,1-1.1c0.1-0.1,0.2-0.3,0.3-0.4c0.2-0.2,0.2-0.6,0.1-0.8c-0.1-0.3-0.4-0.4-0.7-0.4
		c-0.2,0-0.3,0-0.5,0.1c-0.3,0.2-0.5,0.4-0.6,0.6c-0.4,0.4-0.7,0.6-1.1,0.7C73.7,39,73.1,39,72.6,39h-0.5l-0.6,0c-0.3,0-0.6,0-0.9,0
		c-1,0-2.2,0.1-3.3,0.8c-0.6,0.4-1.2,1-1.7,1.6c-0.4,0.5-0.6,1.1-0.8,1.6l-0.1,0.3c-0.1,0.2-0.2,0.5-0.3,0.8
		c-0.1,0.4-0.3,0.9-0.5,1.2c0-0.4,0.1-1,0.1-1.5c0-1.5-0.2-3-0.3-4.4c-0.1-0.9-0.2-1.7-0.3-2.6h0.1l0-0.5c0-0.6,0.3-1.3,0.4-1.7
		c0.4-1.1,1-2.2,1.7-3.1c0.7-0.8,1.3-1.4,2.3-1.6c0.1,0,0.2,0,0.3,0c1.2,0,1.9,1,2.6,2c0.9,1.3,2.2,2,3.6,2c0.2,0,0.3,0,0.5,0
		c0.5-0.1,1.1-0.2,1.5-0.3c0.7-0.1,1.3-0.3,2-0.3c0.3,0,0.5,0,0.8,0.1c0.9,0.2,1.4,0.6,1.4,1.5c0.1,0.8,0.1,1.6,0.1,2.4l0,0.8
		c0,0.4,0.4,0.7,0.8,0.7c0.4,0,0.8-0.3,0.8-0.7c0-0.5,0.1-0.9,0.2-1.4c0.2-0.9,0.3-1.9,0.1-2.9c-0.2-0.5-0.5-1.2-1.1-1.6
		c0.1,0,0.3,0,0.7-0.1c0.3,0,0.5,0,0.6-0.1c0.5-0.1,1.1-0.3,1.7-0.6c1.3-0.6,2.3-1.5,2.9-2.5c0.5-0.9,0.9-2,1-3.2
		c0.1-0.5,0.1-1,0.1-1.6v-0.1c0-0.2,0-0.5,0-0.7c0-0.2-0.1-0.4-0.2-0.5c-0.2-0.3-0.5-0.5-0.8-0.5c-0.4,0-0.7,0.2-0.8,0.5
		c-0.1,0.1-0.2,0.4-0.3,0.7v0.6c0,0.6,0,1-0.1,1.4c-0.1,1.1-0.4,2-0.9,2.7c-0.3,0.5-0.6,0.8-1,1.1c-0.3,0.2-0.6,0.3-0.9,0.5
		c-0.3,0.1-0.6,0.2-0.8,0.4c-0.1,0-0.3,0.1-0.5,0.2c-0.7,0.2-1.7,0.5-1.9,1.3c0,0,0,0,0,0c-0.5-0.1-1.1-0.2-1.8-0.2
		c-0.9,0-1.9,0.1-3.1,0.4c-0.3,0.1-0.7,0.1-1,0.1c-0.3,0-0.5,0-0.7-0.1c-0.5-0.3-0.8-0.6-1.1-1.1c-0.1-0.1-0.2-0.3-0.3-0.4
		c-0.8-1-1.9-2.2-3.7-2.3c-0.1,0-0.3,0-0.4,0c-2.2,0-3.6,1.2-4.7,2.6c0.1-0.8,0.1-1.6,0.1-2.4c0-0.6-0.1-1.1-0.2-1.5
		c-0.1-0.4-0.2-0.8-0.2-1.2c0-0.8,0-1.5,0.1-2.2c0.3-0.6,0.7-1.1,1.3-1.5c0.7-0.5,1.6-0.9,2.7-1.1c0.7-0.1,1.5-0.3,2.2-0.3
		c0.3,0,0.7,0,0.9,0.1c1,0.2,1.9,0.7,2.7,1.4c0.4,0.4,0.8,0.8,1.2,1.2c0.3,0.3,0.6,0.7,0.9,1c1.8,1.7,3.9,2,5.8,2
		c0.5,0,0.8-0.3,0.9-0.7c0.1-0.4-0.2-0.8-0.7-0.9C81.3,24,81,24,80.7,23.9c-0.9-0.2-1.8-0.4-2.5-0.8c-0.7-0.4-1.3-1-1.8-1.7L75.9,21
		c-0.2-0.2-0.4-0.4-0.6-0.6c0.6,0,1.1-0.1,1.5-0.2c1.1-0.3,2-0.8,2.9-1.3c0.2-0.1,0.5-0.3,0.7-0.4l0.1,0c0.6-0.3,1.2-0.7,1.8-0.7
		c0.2,0,0.5,0,0.7,0c0.2,0,0.4,0,0.6,0c0.7,0,1.2,0.2,1.6,0.3c0.2,0.2,0.5,0.3,0.8,0.3c0.1,0,0.2,0,0.2,0c0.4-0.1,0.6-0.4,0.6-0.8
		c0-0.3-0.2-0.6-0.4-0.7c-0.1-0.1-0.1-0.1-0.2-0.2c-0.2-0.1-0.5-0.3-0.7-0.4c-0.5-0.2-1-0.3-1.7-0.5c-0.4-0.1-0.7-0.1-1.1-0.1
		c-0.8,0-1.6,0.2-2.4,0.4c-0.6,0.2-1.2,0.6-1.8,0.9c-0.6,0.3-1.2,0.7-1.9,0.9c-0.9,0.2-1.7,0.3-2.4,0.3c-0.4,0-0.7,0-1.1,0
		c-0.3,0-0.6,0-0.9,0c-1,0-1.3-0.1-1.5-0.1c-0.2,0-0.4-0.1-0.8-0.1c-0.1,0-0.2,0-0.4,0c-0.9,0-2,0.1-3.2,0.5
		c0.1-0.2,0.2-0.4,0.2-0.6c0.5-1.2,0.8-2.5,1-3.7c0.2-1,0.4-2,0.3-3c0.8,0,1.7-0.2,2.5-0.6c1.1-0.5,2-1.3,2.7-2.4
		c0.6-1,1.2-1.8,2.2-2.5c0.6-0.5,1.9-1.4,1.6-2.9c-0.2-0.7-0.6-1.9-1.5-2.5c-0.1-0.1-0.3-0.1-0.5-0.1c-0.3,0-0.6,0.1-0.7,0.4
		c-0.2,0.3-0.2,0.6,0,0.9l0.2,0.3c0.3,0.5,0.8,1.3,0.7,1.7c0,0.4-0.5,0.7-1,1c-0.2,0.1-0.4,0.3-0.6,0.4c-0.7,0.5-1.1,1.2-1.5,1.8
		c-0.6,0.8-1.1,1.6-2,2C69.3,8.9,68.7,9,68.1,9c-1,0-1.8-0.4-2.3-1.2c-0.3-0.4-0.5-0.8-0.7-1.2c-0.2-0.3-0.4-0.6-0.6-1l-0.1-0.2
		c0-0.1-0.1-0.1-0.2-0.2c0.5-1.4,1.5-2.4,2.9-3.2C69.6,0.8,73.5,0,75.8,0c4.3,0,6.7,1.6,8.3,2.6c0.8,0.5,1.4,0.9,1.9,0.9
		c0.2,0,0.3,0,0.5,0c0.1,0,0.2,0,0.3,0c-0.1,0.2-0.3,0.5-0.4,0.7c-1,1.2-2.5,1.9-3.6,2.3C82,6.8,81.2,7,80.4,7l-0.6,0
		c-0.6,0-1.3,0.1-1.9,0.2c-0.4,0.1-0.6,0.4-0.7,0.8c0,0.4,0.2,0.7,0.6,0.8c0.7,0.2,1.4,0.3,2.1,0.3c-0.6,0.6-1.3,1.4-1.8,2.4
		l-0.1,0.1c-0.3,0.7-0.7,1.5-0.7,2.4c0,0.4,0.4,0.8,0.9,0.8c0.3,0,0.5-0.1,0.7-0.4c0.4-0.5,0.6-1.1,0.8-1.6c0.1-0.4,0.3-0.8,0.5-1.1
		c0.5-0.7,1.1-1.4,1.8-2c0.5-0.4,1-0.7,1.6-1.1c0.3-0.1,0.5-0.3,0.8-0.4l0.1-0.1c0.4-0.2,0.8-0.4,1.1-0.7c1.6-0.9,2.6-1.8,3.2-3
		c0,0,0.1-0.1,0.1-0.1C88.9,4.6,89,4.6,89,4.6l0.1,0.2h0.3c0.8-0.1,1.4-0.1,2-0.1c6.5,0,8.5,3.7,9.5,5.7c0,0.1,0.1,0.2,0.1,0.2
		c-0.1,0.1-0.2,0.3-0.4,0.4c-0.1,0-0.4,0.1-0.8,0.1c-0.2,0-0.4,0-0.7,0c-0.6,0-1.2-0.2-2-0.4c-1.2-0.3-2.5-0.7-3.9-0.7h-0.5
		c-1.5,0-2.7,0.1-3.7,0.4c-1.1,0.3-2.3,0.8-3,1.8c-0.2,0.3-0.2,0.6,0,0.9c0.2,0.3,0.5,0.4,0.8,0.4c0.1,0,0.3,0,0.4-0.1
		c0.3-0.1,0.6-0.3,0.9-0.5c0.3-0.2,0.6-0.3,0.8-0.4c0.5-0.2,1.1-0.4,1.7-0.5c0.9-0.1,1.7-0.2,2.4-0.2c0.6,0,1.2,0.1,1.7,0.1
		c0.5,0.1,1,0.2,1.4,0.4c0.8,0.3,1.7,0.5,2.6,0.6c0.1,0,0.2,0,0.3,0c-0.2,0.3-0.4,0.7-0.6,1c-0.3,0.7-0.8,1.7-0.5,2.8
		c0.1,0.4,0.4,0.6,0.8,0.6c0.4,0,0.7-0.2,0.8-0.6c0.1-0.3,0.2-0.5,0.3-0.8c0.1-0.3,0.2-0.5,0.3-0.8c0.2-0.5,0.5-0.9,0.8-1.4
		c0.3-0.5,0.7-0.9,1.1-1.3c0.1-0.1,0.2-0.2,0.3-0.3c2.5,1.4,4.6,2.9,6.4,4.4c1.2,1,2.2,2,3.1,3.1c1.6,2,2.8,4,3.5,6.3
		c0,0-0.2,0-0.2,0c-0.3,0-0.5,0-0.8,0c-0.6,0-1.1,0.1-1.5,0.3c-0.7,0.3-1.2,0.9-1.9,1.5l-0.3,0.3c-0.3,0.3-0.3,0.6-0.1,1
		c0.1,0.3,0.4,0.5,0.8,0.5c0.1,0,0.2,0,0.3-0.1c0.3-0.1,0.6-0.4,1.1-0.8c0.2-0.2,0.8-0.7,0.9-0.7c0.3-0.1,0.7-0.1,1.1-0.1
		c0.1,0,0.2,0,0.3,0c0.1,0,0.3,0,0.4,0c0.3,0,0.7,0.1,1,0.1c0.1,0,0.2,0,0.3,0C119.2,30.4,120.4,34.9,119.8,39z"/>
	<path fill="#FFFFFF" d="M104.9,65.3c0-0.4,0-0.8,0-1.1c0-0.2,0.1-0.5,0.1-0.7c0.1-0.3,0.1-0.6,0.2-0.9c0.1-0.6,0-1.2,0-1.8
		c-0.1-2-0.1-3.1,1.5-3.6c1.1-0.3,2.3-0.7,3.1-1.6c0.3-0.3,0.6-0.6,0.8-0.9c0.1-0.2,0.3-0.3,0.4-0.5L111,54c0.3-0.3,0.6-0.7,0.8-1.2
		c0.3-1,0.8-2.8-0.1-3.9c-0.4-0.5-1-0.8-1.7-0.8c0,0,0,0,0,0c-0.5,0-0.8,0.3-0.9,0.8c0,0.4,0.3,0.8,0.8,0.9c0.2,0,0.3,0.1,0.3,0.1
		c0.2,0.3,0.1,1.3-0.2,1.9c-0.2,0.4-0.5,0.7-0.8,1.2c-0.1,0.1-0.2,0.3-0.3,0.4c-0.1,0.1-0.2,0.2-0.3,0.3c-0.3,0-0.6-0.2-0.9-0.4
		c-0.4-0.4-0.7-0.9-0.8-1.6c-0.1-0.8-0.2-1.5-0.1-2.1c0.1-0.6,0.2-1.3,0.4-1.9c0.1-0.3,0.2-0.7,0.2-1c0.3-1.2,0.5-3.6-0.5-5.5
		c-0.9-1.6-2.6-2.7-4.6-3c-1-0.2-2.1-0.4-3.3-0.7c-0.9-0.2-1.8-0.4-2.5-0.9c-1.2-0.7-2-2.4-1.8-3.6c0.2-0.7,0.5-1.3,0.9-2
		c0.2-0.4,0.5-0.8,0.7-1.3c0.2-0.1,0.3-0.2,0.4-0.2c0.3-0.1,0.6-0.2,0.9-0.2c0.2,0,0.5,0,0.7,0.1c0.8,0.2,1.5,0.4,2.3,0.4
		c0.3,0,0.7,0,1-0.1c1.2-0.2,2.3-0.8,3.2-1.6c-0.1,0.7-0.1,1.5,0.1,2.4c0.4,1.8,1.1,3,2,3.8c0.6,0.5,1.3,0.9,2.1,1.1
		c0.8,0.3,1.3,0.6,1.7,1.1c0.5,0.7,0.8,1.4,0.8,2.1c0,0.4,0,0.8,0,1.2l0,0.3c-0.1,0.4-0.2,0.8-0.3,1.2c-0.5,2.2-0.1,3.7,1.2,4.3
		c0.5,0.2,1.1,0.3,1.7,0.3c1.5,0,3.1-0.7,4.8-2.2c0.8-0.7,1.5-1.4,2-2.1c1,2,1.7,4.1,0.9,6.9c-0.5,0.8-1.2,1.6-2.1,2.4
		c-0.2,0.2-0.4,0.3-0.6,0.5c-0.6,0.5-1,0.9-1.8,1.2c-0.5,0.2-1.2,0.5-1.9,0.9c-1.8,1-2.5,3-3.2,5c-0.9,2.5-1.7,4.9-4.7,5.8
		C106.6,64.5,105.8,64.9,104.9,65.3z"/>
	<path fill="#FFFFFF" d="M120.7,58.5c-0.7-0.4-1.5-0.6-2.2-0.7c-0.2,0-0.5,0-0.8,0c-1,0-2.1,0.2-3,0.5c0.2-0.6,0.4-1.1,0.6-1.4
		c0.5-0.7,1.3-1.1,2.1-1.6c0.1-0.1,0.3-0.2,0.4-0.2c0.2-0.1,0.4-0.2,0.5-0.3c0.8-0.4,1.4-0.8,2-1.2c0,0.3,0.1,0.6,0.1,0.9
		c0.1,0.6,0.1,1.2,0.1,1.7C120.6,57,120.7,57.8,120.7,58.5z"/>
</g>
</svg>
